blog - Tidy Tuesday - London Marathon (2023, Week 17)
…
winners <- tuesdata$winners
london_marathon <- tuesdata$london_marathon

rm(tuesdata)

The london_marathon data frame contains information about the race itself, including when it was held, competitors and fundraising.

The winners data frame contains information about the race winners in various categories.

Exploratory data analysis

winners %>% 
  right_join(london_marathon, by = 'Year')

# A tibble: 163 × 12
   Category  Year Athlete    Nationality Time     Date       Applicants Accepted
   <chr>    <dbl> <chr>      <chr>       <time>   <date>          <dbl>    <dbl>
 1 Men       1981 Dick Bear… United Sta… 02:11:48 1981-03-29      20000     7747
 2 Men       1981 Inge Simo… Norway      02:11:48 1981-03-29      20000     7747
 3 Men       1982 Hugh Jones United Kin… 02:09:24 1982-05-09      90000    18059
 4 Men       1983 Mike Grat… United Kin… 02:09:43 1983-04-17      60000    19735
 5 Men       1984 Charlie S… United Kin… 02:09:57 1984-05-13      70000    21142
 6 Men       1985 Steve Jon… United Kin… 02:08:16 1985-04-21      83000    22274
 7 Men       1986 Toshihiko… Japan       02:10:02 1986-04-20      80000    25566
 8 Men       1987 Hiromi Ta… Japan       02:09:50 1987-05-10      80000    28364
 9 Men       1988 Henrik Jø… Denmark     02:10:20 1988-04-17      73000    29979
10 Men       1989 Douglas W… Kenya       02:09:03 1989-04-23      72000    31772
# ℹ 153 more rows
# ℹ 4 more variables: Starters <dbl>, Finishers <dbl>, Raised <dbl>,
#   `Official charity` <chr>
…
