Policy-Based Evidence - Tidy Tuesday - Haunted Places in the United States (2023, Week 41)
…
Exploratory data analysis

I explored a few ideas:

How many haunted places were there per State in the United States?

Are there any clusters of haunted places in the same location? By State?

How far away is each haunted place is from the nearest city center? (This was my first choice, but on digging into the data some more, it became clear that both the location and city centre locations were geocoded using Google’s API from the same data. So, analysis of this would really just be about the accuracy (or otherwise) of Google’s geocoding service.)

Could I extract some categories from the text descriptions, to make an interesting choropleth map?

haunted_places

# A tibble: 10,992 × 10
   city       country description location state state_abbrev longitude latitude
   <chr>      <chr>   <chr>       <chr>    <chr> <chr>            <dbl>    <dbl>
 1 Ada        United… "Ada witch… Ada Cem… Mich… MI               -85.5     43.0
 2 Addison    United… "A little … North A… Mich… MI               -84.4     42.0
 3 Adrian     United… "If you ta… Ghost T… Mich… MI               -84.0     41.9
 4 Adrian     United… "In the 19… Siena H… Mich… MI               -84.0     41.9
 5 Albion     United… "Kappa Del… Albion … Mich… MI               -84.7     42.2
 6 Albion     United… "A mysteri… Riversi… Mich… MI               -84.8     42.2
 7 Algoma To… United… "On a wind… Hell's … Mich… MI                NA       NA  
 8 Algonac    United… "Morrow Ro… Morrow … Mich… MI               -82.6     42.7
 9 Allegan    United… "People re… Elks Lo… Mich… MI               -85.8     42.5
10 Allegan    United… "Various g… The Gri… Mich… MI               -85.9     42.5
# ℹ 10,982 more rows
# ℹ 2 more variables: city_longitude <dbl>, city_latitude <dbl>

haunted_places %>% 
  group_by(state) %>% 
  count() %>% 
  arrange(desc(n))

# A tibble: 51 × 2
# Groups:   state [51]
   state             n
   <chr>         <int>
 1 California     1070
 2 Texas           696
 3 Pennsylvania    649
 4 Michigan        529
 5 Ohio            477
 6 New York        459
 7 Illinois        395
 8 Kentucky        370
 9 Indiana         351
10 Massachusetts   342
# ℹ 41 more rows

haunted_places %>% 
  filter((is.na(longitude) == FALSE) & (is.na(latitude) == FALSE)) %>% 
  group_by(state, latitude, longitude) %>% 
  count() %>% 
  filter(n > 1) %>% 
  group_by(state) %>% 
  count() %>% 
  arrange(desc(n))

# A tibble: 49 × 2
# Groups:   state [49]
   state             n
   <chr>         <int>
 1 California       61
 2 Pennsylvania     40
 3 Texas            37
 4 Ohio             28
 5 Michigan         27
 6 New York         24
 7 Massachusetts    22
 8 Florida          19
 9 Illinois         19
10 Missouri         17
# ℹ 39 more rows
…
